Frankenstein_monociclo/obj_dir copy/waveform.vcd
$version Generated by VerilatedVcd $end
$timescale 1ps $end
 $scope module TOP $end
  $var wire 1 #! CLOCK_50 $end
  $var wire 8 $! VGA_R [7:0] $end
  $var wire 8 %! VGA_G [7:0] $end
  $var wire 8 &! VGA_B [7:0] $end
  $var wire 1 '! VGA_HS $end
  $var wire 1 (! VGA_VS $end
  $var wire 1 )! VGA_CLK $end
  $var wire 1 *! VGA_BLANK_N $end
  $var wire 1 +! VGA_SYNC_N $end
  $scope module top $end
   $var wire 32 9! VGA_BITS [31:0] $end
   $var wire 1 #! CLOCK_50 $end
   $var wire 8 $! VGA_R [7:0] $end
   $var wire 8 $! VGA_G [7:0] $end
   $var wire 8 $! VGA_B [7:0] $end
   $var wire 1 '! VGA_HS $end
   $var wire 1 (! VGA_VS $end
   $var wire 1 )! VGA_CLK $end
   $var wire 1 *! VGA_BLANK_N $end
   $var wire 1 +! VGA_SYNC_N $end
   $var wire 32 ,! pc [31:0] $end
   $var wire 32 -! addr_vga [31:0] $end
   $var wire 32 P instruction [31:0] $end
   $var wire 32 .! read_data [31:0] $end
   $var wire 32 /! read_data_vga [31:0] $end
   $var wire 32 z write_data [31:0] $end
   $var wire 32 { alu_result [31:0] $end
   $var wire 1 Q mem_write $end
   $var wire 4 | byte_enable [3:0] $end
   $var wire 1 # resetn $end
   $scope module dmem $end
    $var wire 1 } clk $end
    $var wire 1 0! mem_write $end
    $var wire 4 | byte_en [3:0] $end
    $var wire 32 z addr [31:0] $end
    $var wire 9 R vaddr [8:0] $end
    $var wire 32 1! write_data [31:0] $end
    $var wire 32 .! read_data [31:0] $end
    $var wire 32 /! vdata [31:0] $end
    $var wire 32 2! vdata_ [31:0] $end
   $upscope $end
   $scope module franken_riscv $end
    $var wire 1 #! clk $end
    $var wire 1 $ reset $end
    $var wire 32 ,! pc [31:0] $end
    $var wire 32 P instruction [31:0] $end
    $var wire 1 Q mem_write $end
    $var wire 4 | byte_enable [3:0] $end
    $var wire 32 { alu_result [31:0] $end
    $var wire 32 z write_data [31:0] $end
    $var wire 32 .! read_data [31:0] $end
    $var wire 32 ~ src1 [31:0] $end
    $var wire 32 !! src2 [31:0] $end
    $var wire 32 3! data_load [31:0] $end
    $var wire 1 S is_conditional_jump $end
    $var wire 32 "! jump_add [31:0] $end
    $var wire 32 4! next_pc [31:0] $end
    $var wire 7 T opcode [6:0] $end
    $var wire 5 U rd_ [4:0] $end
    $var wire 3 V funct3_ [2:0] $end
    $var wire 5 W rs1 [4:0] $end
    $var wire 5 X rs2 [4:0] $end
    $var wire 7 Y funct7_ [6:0] $end
    $var wire 1 Z R_type $end
    $var wire 1 [ I_type $end
    $var wire 1 Q S_type $end
    $var wire 1 \ B_type $end
    $var wire 1 ] U_type $end
    $var wire 1 ^ J_type $end
    $var wire 5 _ RS1 [4:0] $end
    $var wire 5 ` RS2 [4:0] $end
    $var wire 5 a RD [4:0] $end
    $var wire 3 b funct3 [2:0] $end
    $var wire 7 c funct7 [6:0] $end
    $var wire 32 d imm [31:0] $end
    $var wire 1 e is_add $end
    $var wire 1 f is_addi $end
    $var wire 1 g is_sub $end
    $var wire 1 h is_xor $end
    $var wire 1 i is_or $end
    $var wire 1 j is_andi $end
    $var wire 1 k is_slli $end
    $var wire 1 l is_srli $end
    $var wire 1 m is_auipc $end
    $var wire 1 ^ is_jal $end
    $var wire 1 n is_lui $end
    $var wire 1 o is_jalr $end
    $var wire 1 p is_bge $end
    $var wire 1 q is_beq $end
    $var wire 1 r is_blt $end
    $var wire 1 s is_bne $end
    $var wire 1 t is_sw $end
    $var wire 1 u is_lw $end
    $var wire 1 v is_sb $end
    $var wire 1 w is_lbu $end
    $var wire 1 x is_mem_reg $end
    $var wire 1 y reg_write $end
    $scope module regs $end
     $var wire 1 5! clk $end
     $var wire 1 y reg_write $end
     $var wire 5 _ reg_addr1 [4:0] $end
     $var wire 5 ` reg_addr2 [4:0] $end
     $var wire 5 a addr [4:0] $end
     $var wire 32 6! write_reg [31:0] $end
     $var wire 32 ~ rd1 [31:0] $end
     $var wire 32 !! rd2 [31:0] $end
     $var wire 32 0 rf[0] [31:0] $end
     $var wire 32 1 rf[1] [31:0] $end
     $var wire 32 2 rf[2] [31:0] $end
     $var wire 32 3 rf[3] [31:0] $end
     $var wire 32 4 rf[4] [31:0] $end
     $var wire 32 5 rf[5] [31:0] $end
     $var wire 32 6 rf[6] [31:0] $end
     $var wire 32 7 rf[7] [31:0] $end
     $var wire 32 8 rf[8] [31:0] $end
     $var wire 32 9 rf[9] [31:0] $end
     $var wire 32 : rf[10] [31:0] $end
     $var wire 32 ; rf[11] [31:0] $end
     $var wire 32 < rf[12] [31:0] $end
     $var wire 32 = rf[13] [31:0] $end
     $var wire 32 > rf[14] [31:0] $end
     $var wire 32 ? rf[15] [31:0] $end
     $var wire 32 @ rf[16] [31:0] $end
     $var wire 32 A rf[17] [31:0] $end
     $var wire 32 B rf[18] [31:0] $end
     $var wire 32 C rf[19] [31:0] $end
     $var wire 32 D rf[20] [31:0] $end
     $var wire 32 E rf[21] [31:0] $end
     $var wire 32 F rf[22] [31:0] $end
     $var wire 32 G rf[23] [31:0] $end
     $var wire 32 H rf[24] [31:0] $end
     $var wire 32 I rf[25] [31:0] $end
     $var wire 32 J rf[26] [31:0] $end
     $var wire 32 K rf[27] [31:0] $end
     $var wire 32 L rf[28] [31:0] $end
     $var wire 32 M rf[29] [31:0] $end
     $var wire 32 N rf[30] [31:0] $end
     $var wire 32 O rf[31] [31:0] $end
    $upscope $end
   $upscope $end
   $scope module imem $end
    $var wire 9 7! pc [8:0] $end
    $var wire 32 P instr [31:0] $end
   $upscope $end
   $scope module power_on_reset $end
    $var wire 1 )! clk $end
    $var wire 1 # resetn $end
    $var wire 3 % q [2:0] $end
   $upscope $end
   $scope module video $end
    $var wire 32 9! VGA_BITS [31:0] $end
    $var wire 1 )! clk $end
    $var wire 32 /! vdata [31:0] $end
    $var wire 8 $! VGA_R [7:0] $end
    $var wire 8 $! VGA_G [7:0] $end
    $var wire 8 $! VGA_B [7:0] $end
    $var wire 1 '! VGA_HS_O $end
    $var wire 1 (! VGA_VS_O $end
    $var wire 32 -! vaddr [31:0] $end
    $var wire 10 & CounterX [9:0] $end
    $var wire 10 ' CounterY [9:0] $end
    $var wire 1 ( inDisplayArea $end
    $var wire 1 ) inDisplayAreaPrev $end
    $var wire 1 * vga_HS $end
    $var wire 1 + vga_VS $end
    $var wire 32 , row [31:0] $end
    $var wire 32 - col [31:0] $end
    $var wire 8 8! vbyte [7:0] $end
    $var wire 1 . CounterXmaxed $end
    $var wire 1 / CounterYmaxed $end
   $upscope $end
  $upscope $end
 $upscope $end
$enddefinitions $end


#1
0#
1$
b000 %
b0000000000 &
b0000000000 '
0(
0)
0*
0+
b00000000000000000000000000000000 ,
b00000000000000000000000000000000 -
0.
0/
b00000000000000000000000000000000 0
b00000000000000000000000000000000 1
b00000000000000000000000000000000 2
b00000000000000000000000000000000 3
b00000000000000000000000000000000 4
b00000000000000000000000000000000 5
b00000000000000000000000000000000 6
b00000000000000000000000000000000 7
b00000000000000000000000000000000 8
b00000000000000000000000000000000 9
b00000000000000000000000000000000 :
b00000000000000000000000000000000 ;
b00000000000000000000000000000000 <
b00000000000000000000000000000000 =
b00000000000000000000000000000000 >
b00000000000000000000000000000000 ?
b00000000000000000000000000000000 @
b00000000000000000000000000000000 A
b00000000000000000000000000000000 B
b00000000000000000000000000000000 C
b00000000000000000000000000000000 D
b00000000000000000000000000000000 E
b00000000000000000000000000000000 F
b00000000000000000000000000000000 G
b00000000000000000000000000000000 H
b00000000000000000000000000000000 I
b00000000000000000000000000000000 J
b00000000000000000000000000000000 K
b00000000000000000000000000000000 L
b00000000000000000000000000000000 M
b00000000000000000000000000000000 N
b00000000000000000000000000000000 O
b00000000000000000000000000000000 P
0Q
b000000000 R
0S
b0000000 T
b00000 U
b000 V
b00000 W
b00000 X
b0000000 Y
0Z
0[
0\
0]
0^
b00000 _
b00000 `
b00000 a
b000 b
b0000000 c
b00000000000000000000000000000000 d
0e
0f
0g
0h
0i
0j
0k
0l
0m
0n
0o
0p
0q
0r
0s
0t
0u
0v
0w
0x
0y
b00000000000000000000000000000000 z
b00000000000000000000000000000000 {
b1111 |
0}
b00000000000000000000000000000000 ~
b00000000000000000000000000000000 !!
b00000000000000000000000000000100 "!
1#!
b00000000 $!
b00000000 %!
b00000000 &!
0'!
0(!
0)!
1*!
0+!
b00000000000000000000000000000000 ,!
b00000000000000000000000000000000 -!
b00000000000000000000000000000000 .!
b00000000000000000000000000000000 /!
00!
b00000000000000000000000000000001 1!
b00000000000000000000000000000000 2!
b00000000000000000000000000000000 3!
b00000000000000000000000000000000 4!
05!
b00000000000000000000000000000000 6!
b000000000 7!
b00000000 8!
b00000000000000000000000000001000 9!
#2
0#!
b00000000000000000000000000000000 1!
15!
#3
b001 %
b0000000001 &
1)
1#!
1'!
1(!
1)!
b00000000000000000000000000000001 1!
05!
#4
0#!
b00000000000000000000000000000000 1!
15!
#5
1#!
0)!
b00000000000000000000000000000001 1!
05!
#6
0#!
b00000000000000000000000000000000 1!
15!
#7
b011 %
b0000000010 &
1(
1#!
1)!
b00000000000000000000000000000001 1!
05!
#8
0#!
b00000000000000000000000000000000 1!
15!
#9
1#!
0)!
b00000000000000000000000000000001 1!
05!
#10
0#!
b00000000000000000000000000000000 1!
15!
#11
1#
0$
b111 %
b0000000011 &
1#!
1)!
b00000000000000000000000000000001 1!
b00000000000000000000000000000100 4!
05!
#12
0#!
b00000000000000000000000000000000 1!
15!
#13
b00000000000000000000000000001000 "!
1#!
0)!
b00000000000000000000000000000100 ,!
b00000000000000000000000000000001 1!
b00000000000000000000000000001000 4!
05!
b000000100 7!
#14
0#!
b00000000000000000000000000000000 1!
15!
#15
b0000000100 &
b00000000000000000000000000001100 "!
1#!
1)!
b00000000000000000000000000001000 ,!
b00000000000000000000000000000001 1!
b00000000000000000000000000001100 4!
05!
b000001000 7!
#16
0#!
b00000000000000000000000000000000 1!
15!
#17
b00000000000000000000000000010000 "!
1#!
0)!
b00000000000000000000000000001100 ,!
b00000000000000000000000000000001 1!
b00000000000000000000000000010000 4!
05!
b000001100 7!
#18
0#!
b00000000000000000000000000000000 1!
15!
#19
b0000000101 &
b00000000000000000000000000010100 "!
1#!
1)!
b00000000000000000000000000010000 ,!
b00000000000000000000000000000001 1!
b00000000000000000000000000010100 4!
05!
b000010000 7!
#20
0#!
b00000000000000000000000000000000 1!
15!
#21
b00000000000000000000000000011000 "!
1#!
0)!
b00000000000000000000000000010100 ,!
b00000000000000000000000000000001 1!
b00000000000000000000000000011000 4!
05!
b000010100 7!
#22
0#!
b00000000000000000000000000000000 1!
15!
#23
b0000000110 &
b00000000000000000000000000011100 "!
1#!
1)!
b00000000000000000000000000011000 ,!
b00000000000000000000000000000001 1!
b00000000000000000000000000011100 4!
05!
b000011000 7!
#24
0#!
b00000000000000000000000000000000 1!
15!
#25
b00000000000000000000000000100000 "!
1#!
0)!
b00000000000000000000000000011100 ,!
b00000000000000000000000000000001 1!
b00000000000000000000000000100000 4!
05!
b000011100 7!
#26
0#!
b00000000000000000000000000000000 1!
15!
#27
b0000000111 &
b00000000000000000000000000100100 "!
1#!
1)!
b00000000000000000000000000100000 ,!
b00000000000000000000000000000001 1!
b00000000000000000000000000100100 4!
05!
b000100000 7!
#28
0#!
b00000000000000000000000000000000 1!
15!
#29
b00000000000000000000000000101000 "!
1#!
0)!
b00000000000000000000000000100100 ,!
b00000000000000000000000000000001 1!
b00000000000000000000000000101000 4!
05!
b000100100 7!
#30
0#!
b00000000000000000000000000000000 1!
15!
#31
b0000001000 &
b00000000000000000000000000101100 "!
1#!
1)!
b00000000000000000000000000101000 ,!
b00000000000000000000000000000001 1!
b00000000000000000000000000101100 4!
05!
b000101000 7!
#32
0#!
b00000000000000000000000000000000 1!
15!
#33
b00000000000000000000000000110000 "!
1#!
0)!
b00000000000000000000000000101100 ,!
b00000000000000000000000000000001 1!
b00000000000000000000000000110000 4!
05!
b000101100 7!
#34
0#!
b00000000000000000000000000000000 1!
15!
#35
b0000001001 &
b00000000000000000000000000110100 "!
1#!
1)!
b00000000000000000000000000110000 ,!
b00000000000000000000000000000001 1!
b00000000000000000000000000110100 4!
05!
b000110000 7!
#36
0#!
b00000000000000000000000000000000 1!
15!
#37
b00000000000000000000000000111000 "!
1#!
0)!
b00000000000000000000000000110100 ,!
b00000000000000000000000000000001 1!
b00000000000000000000000000111000 4!
05!
b000110100 7!
#38
0#!
b00000000000000000000000000000000 1!
15!
#39
b0000001010 &
b00000000000000000000000000111100 "!
1#!
1)!
b00000000000000000000000000111000 ,!
b00000000000000000000000000000001 1!
b00000000000000000000000000111100 4!
05!
b000111000 7!
#40
0#!
b00000000000000000000000000000000 1!
15!
#41
b00000000000000000000000001000000 "!
1#!
0)!
b00000000000000000000000000111100 ,!
b00000000000000000000000000000001 1!
b00000000000000000000000001000000 4!
05!
b000111100 7!
#42
0#!
b00000000000000000000000000000000 1!
15!
#43
b0000001011 &
b00000000000000000000000001000100 "!
1#!
1)!
b00000000000000000000000001000000 ,!
b00000000000000000000000000000001 1!
b00000000000000000000000001000100 4!
05!
b001000000 7!
#44
0#!
b00000000000000000000000000000000 1!
15!
#45
b00000000000000000000000001001000 "!
1#!
0)!
b00000000000000000000000001000100 ,!
b00000000000000000000000000000001 1!
b00000000000000000000000001001000 4!
05!
b001000100 7!
#46
0#!
b00000000000000000000000000000000 1!
15!
#47
b0000001100 &
b00000000000000000000000001001100 "!
1#!
1)!
b00000000000000000000000001001000 ,!
b00000000000000000000000000000001 1!
b00000000000000000000000001001100 4!
05!
b001001000 7!
#48
0#!
b00000000000000000000000000000000 1!
15!
#49
b00000000000000000000000001010000 "!
1#!
0)!
b00000000000000000000000001001100 ,!
b00000000000000000000000000000001 1!
b00000000000000000000000001010000 4!
05!
b001001100 7!
#50
0#!
b00000000000000000000000000000000 1!
15!
#51
b0000001101 &
b00000000000000000000000001010100 "!
1#!
1)!
b00000000000000000000000001010000 ,!
b00000000000000000000000000000001 1!
b00000000000000000000000001010100 4!
05!
b001010000 7!
#52
0#!
b00000000000000000000000000000000 1!
15!
#53
b00000000000000000000000001011000 "!
1#!
0)!
b00000000000000000000000001010100 ,!
b00000000000000000000000000000001 1!
b00000000000000000000000001011000 4!
05!
b001010100 7!
#54
0#!
b00000000000000000000000000000000 1!
15!
#55
b0000001110 &
b00000000000000000000000001011100 "!
1#!
1)!
b00000000000000000000000001011000 ,!
b00000000000000000000000000000001 1!
b00000000000000000000000001011100 4!
05!
b001011000 7!
#56
0#!
b00000000000000000000000000000000 1!
15!
#57
b00000000000000000000000001100000 "!
1#!
0)!
b00000000000000000000000001011100 ,!
b00000000000000000000000000000001 1!
b00000000000000000000000001100000 4!
05!
b001011100 7!
#58
0#!
b00000000000000000000000000000000 1!
15!
#59
b0000001111 &
b00000000000000000000000001100100 "!
1#!
1)!
b00000000000000000000000001100000 ,!
b00000000000000000000000000000001 1!
b00000000000000000000000001100100 4!
05!
b001100000 7!
#60
0#!
b00000000000000000000000000000000 1!
15!
#61
b00000000000000000000000001101000 "!
1#!
0)!
b00000000000000000000000001100100 ,!
b00000000000000000000000000000001 1!
b00000000000000000000000001101000 4!
05!
b001100100 7!
#62
0#!
b00000000000000000000000000000000 1!
15!
#63
b0000010000 &
b00000000000000000000000000000001 -
b00000000000000000000000001101100 "!
1#!
1)!
b00000000000000000000000001101000 ,!
b00000000000000000000000000000001 -!
b00000000000000000000000000000001 .!
10!
b00000000000000000000000000000001 1!
b00000000000000000000000000000001 2!
b00000000000000000000000000000001 3!
b00000000000000000000000001101100 4!
05!
b001101000 7!
#64
0#!
b00000000000000000000000000000000 .!
b00000000000000000000000000000000 1!
b00000000000000000000000000000000 2!
b00000000000000000000000000000000 3!
15!
#65
b00000000000000000000000001110000 "!
1#!
0)!
b00000000000000000000000001101100 ,!
b00000000000000000000000000000001 .!
b00000000000000000000000000000001 1!
b00000000000000000000000000000001 2!
b00000000000000000000000000000001 3!
b00000000000000000000000001110000 4!
05!
b001101100 7!
#66
0#!
b00000000000000000000000000000000 .!
b00000000000000000000000000000000 1!
b00000000000000000000000000000000 2!
b00000000000000000000000000000000 3!
15!
#67
b0000010001 &
b00000000000000000000000001110100 "!
1#!
1)!
b00000000000000000000000001110000 ,!
b00000000000000000000000000000001 .!
b00000000000000000000000000000001 1!
b00000000000000000000000000000001 2!
b00000000000000000000000000000001 3!
b00000000000000000000000001110100 4!
05!
b001110000 7!
#68
0#!
b00000000000000000000000000000000 .!
b00000000000000000000000000000000 1!
b00000000000000000000000000000000 2!
b00000000000000000000000000000000 3!
15!
#69
b00000000000000000000000001111000 "!
1#!
0)!
b00000000000000000000000001110100 ,!
b00000000000000000000000000000001 .!
b00000000000000000000000000000001 1!
b00000000000000000000000000000001 2!
b00000000000000000000000000000001 3!
b00000000000000000000000001111000 4!
05!
b001110100 7!
#70
0#!
b00000000000000000000000000000000 .!
b00000000000000000000000000000000 1!
b00000000000000000000000000000000 2!
b00000000000000000000000000000000 3!
15!
#71
b0000010010 &
b00000000000000000000000001111100 "!
1#!
1)!
b00000000000000000000000001111000 ,!
b00000000000000000000000000000001 .!
b00000000000000000000000000000001 1!
b00000000000000000000000000000001 2!
b00000000000000000000000000000001 3!
b00000000000000000000000001111100 4!
05!
b001111000 7!
#72
0#!
b00000000000000000000000000000000 .!
b00000000000000000000000000000000 1!
b00000000000000000000000000000000 2!
b00000000000000000000000000000000 3!
15!
#73
b00000000000000000000000010000000 "!
1#!
0)!
b00000000000000000000000001111100 ,!
b00000000000000000000000000000001 .!
b00000000000000000000000000000001 1!
b00000000000000000000000000000001 2!
b00000000000000000000000000000001 3!
b00000000000000000000000010000000 4!
05!
b001111100 7!
#74
0#!
b00000000000000000000000000000000 .!
b00000000000000000000000000000000 1!
b00000000000000000000000000000000 2!
b00000000000000000000000000000000 3!
15!
#75
b0000010011 &
b00000000000000000000000010000100 "!
1#!
1)!
b00000000000000000000000010000000 ,!
b00000000000000000000000000000001 .!
b00000000000000000000000000000001 1!
b00000000000000000000000000000001 2!
b00000000000000000000000000000001 3!
b00000000000000000000000010000100 4!
05!
b010000000 7!
#76
0#!
b00000000000000000000000000000000 .!
b00000000000000000000000000000000 1!
b00000000000000000000000000000000 2!
b00000000000000000000000000000000 3!
15!
#77
b00000000000000000000000010001000 "!
1#!
0)!
b00000000000000000000000010000100 ,!
b00000000000000000000000000000001 .!
b00000000000000000000000000000001 1!
b00000000000000000000000000000001 2!
b00000000000000000000000000000001 3!
b00000000000000000000000010001000 4!
05!
b010000100 7!
#78
0#!
b00000000000000000000000000000000 .!
b00000000000000000000000000000000 1!
b00000000000000000000000000000000 2!
b00000000000000000000000000000000 3!
15!
#79
b0000010100 &
b00000000000000000000000010001100 "!
1#!
1)!
b00000000000000000000000010001000 ,!
b00000000000000000000000000000001 .!
b00000000000000000000000000000001 1!
b00000000000000000000000000000001 2!
b00000000000000000000000000000001 3!
b00000000000000000000000010001100 4!
05!
b010001000 7!
#80
0#!
b00000000000000000000000000000000 .!
b00000000000000000000000000000000 1!
b00000000000000000000000000000000 2!
b00000000000000000000000000000000 3!
15!
#81
b00000000000000000000000010010000 "!
1#!
0)!
b00000000000000000000000010001100 ,!
b00000000000000000000000000000001 .!
b00000000000000000000000000000001 1!
b00000000000000000000000000000001 2!
b00000000000000000000000000000001 3!
b00000000000000000000000010010000 4!
05!
b010001100 7!
#82
0#!
b00000000000000000000000000000000 .!
b00000000000000000000000000000000 1!
b00000000000000000000000000000000 2!
b00000000000000000000000000000000 3!
15!
#83
b0000010101 &
b00000000000000000000000010010100 "!
1#!
1)!
b00000000000000000000000010010000 ,!
b00000000000000000000000000000001 .!
b00000000000000000000000000000001 1!
b00000000000000000000000000000001 2!
b00000000000000000000000000000001 3!
b00000000000000000000000010010100 4!
05!
b010010000 7!
#84
0#!
b00000000000000000000000000000000 .!
b00000000000000000000000000000000 1!
b00000000000000000000000000000000 2!
b00000000000000000000000000000000 3!
15!
#85
b00000000000000000000000010011000 "!
1#!
0)!
b00000000000000000000000010010100 ,!
b00000000000000000000000000000001 .!
b00000000000000000000000000000001 1!
b00000000000000000000000000000001 2!
b00000000000000000000000000000001 3!
b00000000000000000000000010011000 4!
05!
b010010100 7!
#86
0#!
b00000000000000000000000000000000 .!
b00000000000000000000000000000000 1!
b00000000000000000000000000000000 2!
b00000000000000000000000000000000 3!
15!
#87
b0000010110 &
b00000000000000000000000010011100 "!
1#!
1)!
b00000000000000000000000010011000 ,!
b00000000000000000000000000000001 .!
b00000000000000000000000000000001 1!
b00000000000000000000000000000001 2!
b00000000000000000000000000000001 3!
b00000000000000000000000010011100 4!
05!
b010011000 7!
#88
0#!
b00000000000000000000000000000000 .!
b00000000000000000000000000000000 1!
b00000000000000000000000000000000 2!
b00000000000000000000000000000000 3!
15!
#89
b00000000000000000000000010100000 "!
1#!
0)!
b00000000000000000000000010011100 ,!
b00000000000000000000000000000001 .!
b00000000000000000000000000000001 1!
b00000000000000000000000000000001 2!
b00000000000000000000000000000001 3!
b00000000000000000000000010100000 4!
05!
b010011100 7!
#90
0#!
b00000000000000000000000000000000 .!
b00000000000000000000000000000000 1!
b00000000000000000000000000000000 2!
b00000000000000000000000000000000 3!
15!
#91
b0000010111 &
b00000000000000000000000010100100 "!
1#!
1)!
b00000000000000000000000010100000 ,!
b00000000000000000000000000000001 .!
b00000000000000000000000000000001 1!
b00000000000000000000000000000001 2!
b00000000000000000000000000000001 3!
b00000000000000000000000010100100 4!
05!
b010100000 7!
#92
0#!
b00000000000000000000000000000000 .!
b00000000000000000000000000000000 1!
b00000000000000000000000000000000 2!
b00000000000000000000000000000000 3!
15!
#93
b00000000000000000000000010101000 "!
1#!
0)!
b00000000000000000000000010100100 ,!
b00000000000000000000000000000001 .!
b00000000000000000000000000000001 1!
b00000000000000000000000000000001 2!
b00000000000000000000000000000001 3!
b00000000000000000000000010101000 4!
05!
b010100100 7!
#94
0#!
b00000000000000000000000000000000 .!
b00000000000000000000000000000000 1!
b00000000000000000000000000000000 2!
b00000000000000000000000000000000 3!
15!
#95
b0000011000 &
b00000000000000000000000010101100 "!
1#!
1)!
b00000000000000000000000010101000 ,!
b00000000000000000000000000000001 .!
b00000000000000000000000000000001 1!
b00000000000000000000000000000001 2!
b00000000000000000000000000000001 3!
b00000000000000000000000010101100 4!
05!
b010101000 7!
#96
0#!
b00000000000000000000000000000000 .!
b00000000000000000000000000000000 1!
b00000000000000000000000000000000 2!
b00000000000000000000000000000000 3!
15!
#97
b00000000000000000000000010110000 "!
1#!
0)!
b00000000000000000000000010101100 ,!
b00000000000000000000000000000001 .!
b00000000000000000000000000000001 1!
b00000000000000000000000000000001 2!
b00000000000000000000000000000001 3!
b00000000000000000000000010110000 4!
05!
b010101100 7!
#98
0#!
b00000000000000000000000000000000 .!
b00000000000000000000000000000000 1!
b00000000000000000000000000000000 2!
b00000000000000000000000000000000 3!
15!
#99
b0000011001 &
b00000000000000000000000010110100 "!
1#!
1)!
b00000000000000000000000010110000 ,!
b00000000000000000000000000000001 .!
b00000000000000000000000000000001 1!
b00000000000000000000000000000001 2!
b00000000000000000000000000000001 3!
b00000000000000000000000010110100 4!
05!
b010110000 7!
#100
0#!
b00000000000000000000000000000000 .!
b00000000000000000000000000000000 1!
b00000000000000000000000000000000 2!
b00000000000000000000000000000000 3!
15!
#101
b00000000000000000000000010111000 "!
1#!
0)!
b00000000000000000000000010110100 ,!
b00000000000000000000000000000001 .!
b00000000000000000000000000000001 1!
b00000000000000000000000000000001 2!
b00000000000000000000000000000001 3!
b00000000000000000000000010111000 4!
05!
b010110100 7!
#102
0#!
b00000000000000000000000000000000 .!
b00000000000000000000000000000000 1!
b00000000000000000000000000000000 2!
b00000000000000000000000000000000 3!
15!
#103
b0000011010 &
b00000000000000000000000010111100 "!
1#!
1)!
b00000000000000000000000010111000 ,!
b00000000000000000000000000000001 .!
b00000000000000000000000000000001 1!
b00000000000000000000000000000001 2!
b00000000000000000000000000000001 3!
b00000000000000000000000010111100 4!
05!
b010111000 7!
#104
0#!
b00000000000000000000000000000000 .!
b00000000000000000000000000000000 1!
b00000000000000000000000000000000 2!
b00000000000000000000000000000000 3!
15!
#105
b00000000000000000000000011000000 "!
1#!
0)!
b00000000000000000000000010111100 ,!
b00000000000000000000000000000001 .!
b00000000000000000000000000000001 1!
b00000000000000000000000000000001 2!
b00000000000000000000000000000001 3!
b00000000000000000000000011000000 4!
05!
b010111100 7!
#106
0#!
b00000000000000000000000000000000 .!
b00000000000000000000000000000000 1!
b00000000000000000000000000000000 2!
b00000000000000000000000000000000 3!
15!
#107
b0000011011 &
b00000000000000000000000011000100 "!
1#!
1)!
b00000000000000000000000011000000 ,!
b00000000000000000000000000000001 .!
b00000000000000000000000000000001 1!
b00000000000000000000000000000001 2!
b00000000000000000000000000000001 3!
b00000000000000000000000011000100 4!
05!
b011000000 7!
#108
0#!
b00000000000000000000000000000000 .!
b00000000000000000000000000000000 1!
b00000000000000000000000000000000 2!
b00000000000000000000000000000000 3!
15!
#109
b00000000000000000000000011001000 "!
1#!
0)!
b00000000000000000000000011000100 ,!
b00000000000000000000000000000001 .!
b00000000000000000000000000000001 1!
b00000000000000000000000000000001 2!
b00000000000000000000000000000001 3!
b00000000000000000000000011001000 4!
05!
b011000100 7!
#110
0#!
b00000000000000000000000000000000 .!
b00000000000000000000000000000000 1!
b00000000000000000000000000000000 2!
b00000000000000000000000000000000 3!
15!
#111
b0000011100 &
b00000000000000000000000011001100 "!
1#!
1)!
b00000000000000000000000011001000 ,!
b00000000000000000000000000000001 .!
b00000000000000000000000000000001 1!
b00000000000000000000000000000001 2!
b00000000000000000000000000000001 3!
b00000000000000000000000011001100 4!
05!
b011001000 7!
#112
0#!
b00000000000000000000000000000000 .!
b00000000000000000000000000000000 1!
b00000000000000000000000000000000 2!
b00000000000000000000000000000000 3!
15!
#113
b00000000000000000000000011010000 "!
1#!
0)!
b00000000000000000000000011001100 ,!
b00000000000000000000000000000001 .!
b00000000000000000000000000000001 1!
b00000000000000000000000000000001 2!
b00000000000000000000000000000001 3!
b00000000000000000000000011010000 4!
05!
b011001100 7!
#114
0#!
b00000000000000000000000000000000 .!
b00000000000000000000000000000000 1!
b00000000000000000000000000000000 2!
b00000000000000000000000000000000 3!
15!
#115
b0000011101 &
b00000000000000000000000011010100 "!
1#!
1)!
b00000000000000000000000011010000 ,!
b00000000000000000000000000000001 .!
b00000000000000000000000000000001 1!
b00000000000000000000000000000001 2!
b00000000000000000000000000000001 3!
b00000000000000000000000011010100 4!
05!
b011010000 7!
#116
0#!
b00000000000000000000000000000000 .!
b00000000000000000000000000000000 1!
b00000000000000000000000000000000 2!
b00000000000000000000000000000000 3!
15!
#117
b00000000000000000000000011011000 "!
1#!
0)!
b00000000000000000000000011010100 ,!
b00000000000000000000000000000001 .!
b00000000000000000000000000000001 1!
b00000000000000000000000000000001 2!
b00000000000000000000000000000001 3!
b00000000000000000000000011011000 4!
05!
b011010100 7!
#118
0#!
b00000000000000000000000000000000 .!
b00000000000000000000000000000000 1!
b00000000000000000000000000000000 2!
b00000000000000000000000000000000 3!
15!
#119
b0000011110 &
b00000000000000000000000011011100 "!
1#!
1)!
b00000000000000000000000011011000 ,!
b00000000000000000000000000000001 .!
b00000000000000000000000000000001 1!
b00000000000000000000000000000001 2!
b00000000000000000000000000000001 3!
b00000000000000000000000011011100 4!
05!
b011011000 7!
#120
0#!
b00000000000000000000000000000000 .!
b00000000000000000000000000000000 1!
b00000000000000000000000000000000 2!
b00000000000000000000000000000000 3!
15!
#121
b00000000000000000000000011100000 "!
1#!
0)!
b00000000000000000000000011011100 ,!
b00000000000000000000000000000001 .!
b00000000000000000000000000000001 1!
b00000000000000000000000000000001 2!
b00000000000000000000000000000001 3!
b00000000000000000000000011100000 4!
05!
b011011100 7!
#122
0#!
b00000000000000000000000000000000 .!
b00000000000000000000000000000000 1!
b00000000000000000000000000000000 2!
b00000000000000000000000000000000 3!
15!
#123
b0000011111 &
b00000000000000000000000011100100 "!
1#!
1)!
b00000000000000000000000011100000 ,!
b00000000000000000000000000000001 .!
b00000000000000000000000000000001 1!
b00000000000000000000000000000001 2!
b00000000000000000000000000000001 3!
b00000000000000000000000011100100 4!
05!
b011100000 7!
#124
0#!
b00000000000000000000000000000000 .!
b00000000000000000000000000000000 1!
b00000000000000000000000000000000 2!
b00000000000000000000000000000000 3!
15!
#125
b00000000000000000000000011101000 "!
1#!
0)!
b00000000000000000000000011100100 ,!
b00000000000000000000000000000001 .!
b00000000000000000000000000000001 1!
b00000000000000000000000000000001 2!
b00000000000000000000000000000001 3!
b00000000000000000000000011101000 4!
05!
b011100100 7!
#126
0#!
b00000000000000000000000000000000 .!
b00000000000000000000000000000000 1!
b00000000000000000000000000000000 2!
b00000000000000000000000000000000 3!
15!
#127
b0000100000 &
b00000000000000000000000000000010 -
b00000000000000000000000011101100 "!
1#!
1)!
b00000000000000000000000011101000 ,!
b00000000000000000000000000000010 -!
00!
b00000000000000000000000000000001 1!
b00000000000000000000000011101100 4!
05!
b011101000 7!
#128
0#!
b00000000000000000000000000000000 1!
15!
#129
b00000000000000000000000011110000 "!
1#!
0)!
b00000000000000000000000011101100 ,!
b00000000000000000000000000000001 1!
b00000000000000000000000011110000 4!
05!
b011101100 7!
#130
0#!
b00000000000000000000000000000000 1!
15!
#131
b0000100001 &
b00000000000000000000000011110100 "!
1#!
1)!
b00000000000000000000000011110000 ,!
b00000000000000000000000000000001 1!
b00000000000000000000000011110100 4!
05!
b011110000 7!
