Frankenstein/obj_dir/waveform.vcd
$version Generated by VerilatedVcd $end
$timescale 1ps $end
 $scope module TOP $end
  $var wire 1 =" clk $end
  $scope module top $end
   $var wire 1 =" clk $end
   $var wire 32 O! pc [31:0] $end
   $var wire 32 P! instruction [31:0] $end
   $var wire 32 >" read_data [31:0] $end
   $var wire 32 G write_data [31:0] $end
   $var wire 32 ?" alu_result [31:0] $end
   $var wire 32 Q! write_reg [31:0] $end
   $var wire 32 @" src1 [31:0] $end
   $var wire 32 A" src2 [31:0] $end
   $var wire 1 H mem_write $end
   $var wire 1 R! reg_write $end
   $var wire 1 R" TXD $end
   $var wire 1 S" RXD $end
   $var wire 4 I byte_enable [3:0] $end
   $var wire 5 J RS1 [4:0] $end
   $var wire 5 K RS2 [4:0] $end
   $var wire 5 S! RD [4:0] $end
   $var wire 128 ?! out_decoder1 [127:0] $end
   $var wire 128 C! out_decoder2 [127:0] $end
   $var wire 128 G! out_decoder3 [127:0] $end
   $var wire 128 K! out_decoder4 [127:0] $end
   $var wire 1 # clk_div1 $end
   $var wire 1 B" clk_div2 $end
   $var wire 1 C" clk_div3 $end
   $var wire 1 D" clk_div4 $end
   $var wire 1 $ resetn $end
   $scope module alu_decoder $end
    $var wire 1 =" clk $end
    $var wire 32 P! instruction [31:0] $end
    $var wire 32 L R1 [31:0] $end
    $var wire 32 M R2 [31:0] $end
    $var wire 32 Q! RD [31:0] $end
    $var wire 128 ?! data_out1 [127:0] $end
    $var wire 128 C! data_out2 [127:0] $end
    $var wire 128 G! data_out3 [127:0] $end
    $var wire 128 K! data_out4 [127:0] $end
    $var wire 128 T! hex_code [127:0] $end
    $var wire 64 5" R1_ [63:0] $end
    $var wire 64 7" R2_ [63:0] $end
    $var wire 64 X! RD_ [63:0] $end
    $var wire 64 Z! imm_ [63:0] $end
    $var wire 7 \! opcode [6:0] $end
    $var wire 5 ]! rd_ [4:0] $end
    $var wire 3 ^! funct3_ [2:0] $end
    $var wire 5 _! rs1 [4:0] $end
    $var wire 5 `! rs2 [4:0] $end
    $var wire 7 a! funct7_ [6:0] $end
    $var wire 3 b! funct3 [2:0] $end
    $var wire 7 c! funct7 [6:0] $end
    $var wire 1 d! R_type $end
    $var wire 1 e! I_type $end
    $var wire 1 f! S_type $end
    $var wire 1 g! B_type $end
    $var wire 1 h! U_type $end
    $var wire 1 i! J_type $end
    $var wire 32 j! imm [31:0] $end
    $var wire 1 k! is_jalr $end
    $scope module ascii_decoder1_1 $end
     $var wire 4 N value [3:0] $end
     $var wire 8 9" ascii [7:0] $end
    $upscope $end
    $scope module ascii_decoder1_2 $end
     $var wire 4 O value [3:0] $end
     $var wire 8 :" ascii [7:0] $end
    $upscope $end
    $scope module ascii_decoder1_3 $end
     $var wire 4 T" value [3:0] $end
     $var wire 8 U" ascii [7:0] $end
    $upscope $end
    $scope module ascii_decoder1_4 $end
     $var wire 4 T" value [3:0] $end
     $var wire 8 U" ascii [7:0] $end
    $upscope $end
    $scope module ascii_decoder1_5 $end
     $var wire 4 T" value [3:0] $end
     $var wire 8 U" ascii [7:0] $end
    $upscope $end
    $scope module ascii_decoder1_6 $end
     $var wire 4 T" value [3:0] $end
     $var wire 8 U" ascii [7:0] $end
    $upscope $end
    $scope module ascii_decoder1_7 $end
     $var wire 4 T" value [3:0] $end
     $var wire 8 U" ascii [7:0] $end
    $upscope $end
    $scope module ascii_decoder1_8 $end
     $var wire 4 T" value [3:0] $end
     $var wire 8 U" ascii [7:0] $end
    $upscope $end
    $scope module ascii_decoder2_1 $end
     $var wire 4 P value [3:0] $end
     $var wire 8 ;" ascii [7:0] $end
    $upscope $end
    $scope module ascii_decoder2_2 $end
     $var wire 4 Q value [3:0] $end
     $var wire 8 <" ascii [7:0] $end
    $upscope $end
    $scope module ascii_decoder2_3 $end
     $var wire 4 T" value [3:0] $end
     $var wire 8 U" ascii [7:0] $end
    $upscope $end
    $scope module ascii_decoder2_4 $end
     $var wire 4 T" value [3:0] $end
     $var wire 8 U" ascii [7:0] $end
    $upscope $end
    $scope module ascii_decoder2_5 $end
     $var wire 4 T" value [3:0] $end
     $var wire 8 U" ascii [7:0] $end
    $upscope $end
    $scope module ascii_decoder2_6 $end
     $var wire 4 T" value [3:0] $end
     $var wire 8 U" ascii [7:0] $end
    $upscope $end
    $scope module ascii_decoder2_7 $end
     $var wire 4 T" value [3:0] $end
     $var wire 8 U" ascii [7:0] $end
    $upscope $end
    $scope module ascii_decoder2_8 $end
     $var wire 4 T" value [3:0] $end
     $var wire 8 U" ascii [7:0] $end
    $upscope $end
    $scope module ascii_decoder3_1 $end
     $var wire 4 l! value [3:0] $end
     $var wire 8 m! ascii [7:0] $end
    $upscope $end
    $scope module ascii_decoder3_2 $end
     $var wire 4 n! value [3:0] $end
     $var wire 8 o! ascii [7:0] $end
    $upscope $end
    $scope module ascii_decoder3_3 $end
     $var wire 4 p! value [3:0] $end
     $var wire 8 q! ascii [7:0] $end
    $upscope $end
    $scope module ascii_decoder3_4 $end
     $var wire 4 r! value [3:0] $end
     $var wire 8 s! ascii [7:0] $end
    $upscope $end
    $scope module ascii_decoder3_5 $end
     $var wire 4 t! value [3:0] $end
     $var wire 8 u! ascii [7:0] $end
    $upscope $end
    $scope module ascii_decoder3_6 $end
     $var wire 4 v! value [3:0] $end
     $var wire 8 w! ascii [7:0] $end
    $upscope $end
    $scope module ascii_decoder3_7 $end
     $var wire 4 x! value [3:0] $end
     $var wire 8 y! ascii [7:0] $end
    $upscope $end
    $scope module ascii_decoder3_8 $end
     $var wire 4 z! value [3:0] $end
     $var wire 8 {! ascii [7:0] $end
    $upscope $end
    $scope module ascii_decoder4_1 $end
     $var wire 4 |! value [3:0] $end
     $var wire 8 }! ascii [7:0] $end
    $upscope $end
    $scope module ascii_decoder4_2 $end
     $var wire 4 ~! value [3:0] $end
     $var wire 8 !" ascii [7:0] $end
    $upscope $end
    $scope module ascii_decoder4_3 $end
     $var wire 4 "" value [3:0] $end
     $var wire 8 #" ascii [7:0] $end
    $upscope $end
    $scope module ascii_decoder4_4 $end
     $var wire 4 $" value [3:0] $end
     $var wire 8 %" ascii [7:0] $end
    $upscope $end
    $scope module ascii_decoder4_5 $end
     $var wire 4 &" value [3:0] $end
     $var wire 8 '" ascii [7:0] $end
    $upscope $end
    $scope module ascii_decoder4_6 $end
     $var wire 4 (" value [3:0] $end
     $var wire 8 )" ascii [7:0] $end
    $upscope $end
    $scope module ascii_decoder4_7 $end
     $var wire 4 *" value [3:0] $end
     $var wire 8 +" ascii [7:0] $end
    $upscope $end
    $scope module ascii_decoder4_8 $end
     $var wire 4 ," value [3:0] $end
     $var wire 8 -" ascii [7:0] $end
    $upscope $end
   $upscope $end
   $scope module blockram $end
    $var wire 32 V" BYTE_WIDTH [31:0] $end
    $var wire 32 W" ADDRESS_WIDTH [31:0] $end
    $var wire 32 X" DEPTH [31:0] $end
    $var wire 32 Y" BYTES [31:0] $end
    $var wire 32 W" DATA_WIDTH_R [31:0] $end
    $var wire 32 ?" addr [31:0] $end
    $var wire 4 I be [3:0] $end
    $var wire 32 G data_in [31:0] $end
    $var wire 1 H we $end
    $var wire 1 =" clk $end
    $var wire 32 >" data_out [31:0] $end
    $var wire 32 >" data_reg [31:0] $end
   $upscope $end
   $scope module franken_riscv $end
    $var wire 1 D" clk $end
    $var wire 1 % reset $end
    $var wire 32 O! pc [31:0] $end
    $var wire 32 P! instruction [31:0] $end
    $var wire 1 H mem_write_Mem $end
    $var wire 4 I byte_enable [3:0] $end
    $var wire 32 ?" alu_result_Exec [31:0] $end
    $var wire 32 G write_data [31:0] $end
    $var wire 32 >" read_data [31:0] $end
    $var wire 1 R! reg_write_WB $end
    $var wire 5 J RS1 [4:0] $end
    $var wire 5 K RS2 [4:0] $end
    $var wire 5 S! RD_WB [4:0] $end
    $var wire 32 Q! write_reg_WB [31:0] $end
    $var wire 32 @" src1_Dec [31:0] $end
    $var wire 32 A" src2_Dec [31:0] $end
    $var wire 1 S" RXD $end
    $var wire 1 R" TXD $end
    $var wire 1 ." is_conditional_jump_Exec $end
    $var wire 1 /" mem_write_Exec $end
    $var wire 1 0" mem_read_Exec $end
    $var wire 1 1" reg_write_Exec $end
    $var wire 5 2" RD_Exec [4:0] $end
    $var wire 32 E" jump_add_Exec [31:0] $end
    $var wire 32 3" src2_Exec [31:0] $end
    $var wire 1 R mem_read_Mem $end
    $var wire 1 S reg_write_Mem $end
    $var wire 32 T alu_result_Mem [31:0] $end
    $var wire 32 U data_load [31:0] $end
    $var wire 5 V RD_Mem [4:0] $end
    $var wire 32 F" next_pc [31:0] $end
    $var wire 7 W funct7_ [6:0] $end
    $var wire 7 X opcode [6:0] $end
    $var wire 5 Y rd_ [4:0] $end
    $var wire 5 Z rs1 [4:0] $end
    $var wire 5 [ rs2 [4:0] $end
    $var wire 3 \ funct3_ [2:0] $end
    $var wire 32 ] imm [31:0] $end
    $var wire 32 ^ pc_dec [31:0] $end
    $var wire 2 _ Fwd_A [1:0] $end
    $var wire 2 ` Fwd_B [1:0] $end
    $var wire 1 a stall_Exec $end
    $var wire 1 4" stall_Mem $end
    $var wire 1 b stall_WB $end
    $var wire 1 c R_type $end
    $var wire 1 d is_add $end
    $var wire 1 e is_sub $end
    $var wire 1 f is_xor $end
    $var wire 1 g is_or $end
    $var wire 1 h is_and $end
    $var wire 1 i is_sltu $end
    $var wire 1 j is_sll $end
    $var wire 1 k is_slt $end
    $var wire 1 l is_srl $end
    $var wire 1 m is_sra $end
    $var wire 1 n is_mul $end
    $var wire 1 o is_mulh $end
    $var wire 1 p is_mulhsu $end
    $var wire 1 q is_mulhu $end
    $var wire 1 r is_div $end
    $var wire 1 s is_divu $end
    $var wire 1 t is_rem $end
    $var wire 1 u is_remu $end
    $var wire 1 v is_multiply $end
    $var wire 1 w I_type $end
    $var wire 1 x is_jalr $end
    $var wire 1 y is_lb $end
    $var wire 1 z is_lh $end
    $var wire 1 { is_lw $end
    $var wire 1 | is_lbu $end
    $var wire 1 } is_lhu $end
    $var wire 1 ~ is_addi $end
    $var wire 1 !! is_slti $end
    $var wire 1 "! is_sltiu $end
    $var wire 1 #! is_xori $end
    $var wire 1 $! is_ori $end
    $var wire 1 %! is_andi $end
    $var wire 1 &! is_slli $end
    $var wire 1 '! is_srli $end
    $var wire 1 (! is_srai $end
    $var wire 1 )! S_type $end
    $var wire 1 *! is_sw $end
    $var wire 1 +! is_sb $end
    $var wire 1 ,! is_sh $end
    $var wire 1 -! B_type $end
    $var wire 1 .! is_bge $end
    $var wire 1 /! is_beq $end
    $var wire 1 0! is_blt $end
    $var wire 1 1! is_bne $end
    $var wire 1 2! is_bltu $end
    $var wire 1 3! is_bgeu $end
    $var wire 1 4! U_type $end
    $var wire 1 5! is_auipc $end
    $var wire 1 6! is_lui $end
    $var wire 1 7! J_type $end
    $var wire 1 7! is_jal $end
    $var wire 1 8! fence $end
    $var wire 5 9! RD_Dec [4:0] $end
    $var wire 3 :! funct3 [2:0] $end
    $var wire 7 ;! funct7 [6:0] $end
    $var wire 1 <! is_conditional_jump_Dec $end
    $var wire 1 )! mem_write_Dec $end
    $var wire 1 =! mem_read_Dec $end
    $var wire 1 >! reg_write_Dec $end
    $var wire 32 G" src1_forward [31:0] $end
    $var wire 32 H" src2_forward [31:0] $end
    $var wire 1 I" sign1 $end
    $var wire 1 J" sign2 $end
    $var wire 33 K" src1_sign [32:0] $end
    $var wire 33 M" src2_sign [32:0] $end
    $var wire 64 O" result_mul [63:0] $end
   $upscope $end
   $scope module imem $end
    $var wire 1 Q" clk $end
    $var wire 1 S" write $end
    $var wire 32 O! pc [31:0] $end
    $var wire 32 Z" addr_in [31:0] $end
    $var wire 32 Z" data [31:0] $end
    $var wire 32 P! instr [31:0] $end
   $upscope $end
   $scope module power_on_reset $end
    $var wire 1 =" clk $end
    $var wire 1 $ resetn $end
    $var wire 3 & q [2:0] $end
   $upscope $end
   $scope module regs $end
    $var wire 1 =" clk $end
    $var wire 1 R! reg_write $end
    $var wire 5 J reg_addr1 [4:0] $end
    $var wire 5 K reg_addr2 [4:0] $end
    $var wire 5 S! addr [4:0] $end
    $var wire 32 Q! write_reg [31:0] $end
    $var wire 32 @" rd1 [31:0] $end
    $var wire 32 A" rd2 [31:0] $end
    $var wire 32 ' rf[0] [31:0] $end
    $var wire 32 ( rf[1] [31:0] $end
    $var wire 32 ) rf[2] [31:0] $end
    $var wire 32 * rf[3] [31:0] $end
    $var wire 32 + rf[4] [31:0] $end
    $var wire 32 , rf[5] [31:0] $end
    $var wire 32 - rf[6] [31:0] $end
    $var wire 32 . rf[7] [31:0] $end
    $var wire 32 / rf[8] [31:0] $end
    $var wire 32 0 rf[9] [31:0] $end
    $var wire 32 1 rf[10] [31:0] $end
    $var wire 32 2 rf[11] [31:0] $end
    $var wire 32 3 rf[12] [31:0] $end
    $var wire 32 4 rf[13] [31:0] $end
    $var wire 32 5 rf[14] [31:0] $end
    $var wire 32 6 rf[15] [31:0] $end
    $var wire 32 7 rf[16] [31:0] $end
    $var wire 32 8 rf[17] [31:0] $end
    $var wire 32 9 rf[18] [31:0] $end
    $var wire 32 : rf[19] [31:0] $end
    $var wire 32 ; rf[20] [31:0] $end
    $var wire 32 < rf[21] [31:0] $end
    $var wire 32 = rf[22] [31:0] $end
    $var wire 32 > rf[23] [31:0] $end
    $var wire 32 ? rf[24] [31:0] $end
    $var wire 32 @ rf[25] [31:0] $end
    $var wire 32 A rf[26] [31:0] $end
    $var wire 32 B rf[27] [31:0] $end
    $var wire 32 C rf[28] [31:0] $end
    $var wire 32 D rf[29] [31:0] $end
    $var wire 32 E rf[30] [31:0] $end
    $var wire 32 F rf[31] [31:0] $end
   $upscope $end
  $upscope $end
 $upscope $end
$enddefinitions $end


#1
0#
0$
1%
b000 &
b00000000000000000000000000000000 '
b00000000000000000000000000000000 (
b00000000000000000000000000000000 )
b00000000000000000000000000000000 *
b00000000000000000000000000000000 +
b00000000000000000000000000000000 ,
b00000000000000000000000000000000 -
b00000000000000000000000000000000 .
b00000000000000000000000000000000 /
b00000000000000000000000000000000 0
b00000000000000000000000000000000 1
b00000000000000000000000000000000 2
b00000000000000000000000000000000 3
b00000000000000000000000000000000 4
b00000000000000000000000000000000 5
b00000000000000000000000000000000 6
b00000000000000000000000000000000 7
b00000000000000000000000000000000 8
b00000000000000000000000000000000 9
b00000000000000000000000000000000 :
b00000000000000000000000000000000 ;
b00000000000000000000000000000000 <
b00000000000000000000000000000000 =
b00000000000000000000000000000000 >
b00000000000000000000000000000000 ?
b00000000000000000000000000000000 @
b00000000000000000000000000000000 A
b00000000000000000000000000000000 B
b00000000000000000000000000000000 C
b00000000000000000000000000000000 D
b00000000000000000000000000000000 E
b00000000000000000000000000000000 F
b00000000000000000000000000000000 G
0H
b0000 I
b00000 J
b00000 K
b00000000000000000000000000000000 L
b00000000000000000000000000000000 M
b0000 N
b0000 O
b0000 P
b0000 Q
0R
0S
b00000000000000000000000000000000 T
b00000000000000000000000000000000 U
b00000 V
b0000000 W
b0000000 X
b00000 Y
b00000 Z
b00000 [
b000 \
b00000000000000000000000000000000 ]
b00000000000000000000000000000000 ^
b00 _
b00 `
0a
0b
0c
0d
0e
0f
0g
0h
0i
0j
0k
0l
0m
0n
0o
0p
0q
0r
0s
0t
0u
0v
0w
0x
0y
0z
0{
0|
0}
0~
0!!
0"!
0#!
0$!
0%!
0&!
0'!
0(!
0)!
0*!
0+!
0,!
0-!
0.!
0/!
00!
01!
02!
03!
04!
05!
06!
07!
08!
b00000 9!
b000 :!
b0000000 ;!
0<!
0=!
0>!
b00000000000000000000000000000000000000000000000000000000000000000000000000000000000000000000000000000000000000000000000000000000 ?!
b00000000000000000000000000000000010010010100110101001101001110100011000000110000001100000011000000110000001100000011000000110000 C!
b00000000000000000000000000000000010100100011000100111010000000000011000000110000001100000011000000110000001100000011000000110000 G!
b00000000000000000000000000000000010100100011001000111010000000000011000000110000001100000011000000110000001100000011000000110000 K!
b00000000000000000000000000000000 O!
b00000000000000000000000000000000 P!
b00000000000000000000000000000000 Q!
0R!
b00000 S!
b00000000000000000000000000000000000000000000000000000000000000000000000000000000000000000000000000000000000000000000000000000000 T!
b0011000000110000001100000011000000110000001100000011000000110000 X!
b0011000000110000001100000011000000110000001100000011000000110000 Z!
b0000000 \!
b00000 ]!
b000 ^!
b00000 _!
b00000 `!
b0000000 a!
b000 b!
b0000000 c!
0d!
0e!
0f!
0g!
0h!
0i!
b00000000000000000000000000000000 j!
0k!
b0000 l!
b00110000 m!
b0000 n!
b00110000 o!
b0000 p!
b00110000 q!
b0000 r!
b00110000 s!
b0000 t!
b00110000 u!
b0000 v!
b00110000 w!
b0000 x!
b00110000 y!
b0000 z!
b00110000 {!
b0000 |!
b00110000 }!
b0000 ~!
b00110000 !"
b0000 ""
b00110000 #"
b0000 $"
b00110000 %"
b0000 &"
b00110000 '"
b0000 ("
b00110000 )"
b0000 *"
b00110000 +"
b0000 ,"
b00110000 -"
0."
0/"
00"
01"
b00000 2"
b00000000000000000000000000000000 3"
04"
b0011000000110000001100000011000000110000001100000011000000110000 5"
b0011000000110000001100000011000000110000001100000011000000110000 7"
b00110000 9"
b00110000 :"
b00110000 ;"
b00110000 <"
1="
b00000000000000000000000000000000 >"
b00000000000000000000000000000000 ?"
b00000000000000000000000000000000 @"
b00000000000000000000000000000000 A"
0B"
0C"
0D"
b00000000000000000000000000000000 E"
b00000000000000000000000000000000 F"
b00000000000000000000000000000000 G"
b00000000000000000000000000000000 H"
0I"
0J"
b000000000000000000000000000000000 K"
b000000000000000000000000000000000 M"
b0000000000000000000000000000000000000000000000000000000000000000 O"
0Q"
0R"
0S"
b0000 T"
b00110000 U"
b00000000000000000000000000001000 V"
b00000000000000000000000000100000 W"
b00000000000000000000000000110010 X"
b00000000000000000000000000000100 Y"
b00000000000000000000000000000000 Z"
#2
0="
1Q"
#3
1#
b001 &
1="
1B"
1C"
1D"
b00000000000000000000000000000100 E"
0Q"
#4
0="
1Q"
#5
0#
b011 &
1="
0Q"
#6
0="
1Q"
#7
1#
1$
0%
b111 &
1="
0B"
b00000000000000000000000000000100 F"
0Q"
#8
0="
1Q"
#9
0#
1="
0Q"
#10
0="
1Q"
#11
1#
1="
1B"
0C"
0Q"
#12
0="
1Q"
#13
0#
1="
0Q"
#14
0="
1Q"
#15
1#
1="
0B"
0Q"
#16
0="
1Q"
#17
0#
1="
0Q"
#18
0="
1Q"
#19
1#
b1111 I
1="
1B"
1C"
0D"
0Q"
#20
0="
1Q"
#21
0#
1="
0Q"
#22
0="
1Q"
#23
1#
1="
0B"
0Q"
#24
0="
1Q"
#25
0#
1="
0Q"
#26
0="
1Q"
#27
1#
1="
1B"
0C"
0Q"
#28
0="
1Q"
#29
0#
1="
0Q"
#30
0="
1Q"
#31
1#
1="
0B"
0Q"
#32
0="
1Q"
#33
0#
1="
0Q"
#34
0="
1Q"
#35
1#
b00000000000000000000000000000100 O!
b00000000000000000000000000010011 P!
b00000000000000000000000001000001010001000100010001001001000000000101001000110001000000000010101100000000010010010100110101001101 T!
b0010011 \!
1e!
1="
1B"
1C"
1D"
b00000000000000000000000000001000 F"
0Q"
#36
b00000000000000000000000001000001010001000100010001001001000000000101001000110001000000000010101100000000010010010100110101001101 ?!
b00000000000000000000000000000000010100100100010000111010000000000011000000110000001100000011000000110000001100000011000000110000 K!
0="
1Q"
#37
0#
1="
0Q"
#38
0="
1Q"
#39
1#
1="
0B"
0Q"
#40
0="
1Q"
#41
0#
1="
0Q"
#42
0="
1Q"
#43
1#
1="
1B"
0C"
0Q"
#44
0="
1Q"
#45
0#
1="
0Q"
#46
0="
1Q"
#47
1#
1="
0B"
0Q"
#48
0="
1Q"
#49
0#
1="
0Q"
#50
0="
1Q"
#51
1#
b0010011 X
b00000000000000000000000000000100 ^
1w
1~
1="
1B"
1C"
0D"
0Q"
#52
0="
1Q"
#53
0#
1="
0Q"
#54
0="
1Q"
#55
1#
1="
0B"
0Q"
#56
0="
1Q"
#57
0#
1="
0Q"
#58
0="
1Q"
#59
1#
1="
1B"
0C"
0Q"
#60
0="
1Q"
#61
0#
1="
0Q"
#62
0="
1Q"
#63
1#
1="
0B"
0Q"
#64
0="
1Q"
#65
0#
1="
0Q"
#66
0="
1Q"
#67
1#
b00000000000000000000000000001000 O!
b00000000000000000000011110110111 P!
b00000000000000000000000000000000000000000000000000000000000000000000000001001100010101010100100100000000010010010100110101001101 T!
b0110111 \!
b01111 ]!
0e!
1h!
1="
1B"
1C"
1D"
b00000000000000000000000000001000 E"
b00000000000000000000000000001100 F"
0Q"
#68
b00000000000000000000000000000000000000000000000000000000000000000000000001001100010101010100100100000000010010010100110101001101 ?!
b00000000000000000000000000000000000000000000000000000000000000000000000000000000000000000000000000000000000000000000000000000000 G!
0="
1Q"
#69
0#
1="
0Q"
#70
0="
1Q"
#71
1#
1="
0B"
0Q"
#72
0="
1Q"
#73
0#
1="
0Q"
#74
0="
1Q"
#75
1#
1="
1B"
0C"
0Q"
#76
0="
1Q"
#77
0#
1="
0Q"
#78
0="
1Q"
#79
1#
1="
0B"
0Q"
#80
0="
1Q"
#81
0#
1="
0Q"
#82
0="
1Q"
#83
1#
b0110111 X
b01111 Y
b00000000000000000000000000001000 ^
0w
0~
14!
16!
b01111 9!
1>!
1="
1B"
1C"
0D"
0Q"
#84
0="
1Q"
#85
0#
1="
0Q"
#86
0="
1Q"
#87
1#
1="
0B"
0Q"
#88
0="
1Q"
#89
0#
1="
0Q"
#90
0="
1Q"
#91
1#
1="
1B"
0C"
0Q"
#92
0="
1Q"
#93
0#
1="
0Q"
#94
0="
1Q"
#95
1#
1="
0B"
0Q"
#96
0="
1Q"
#97
0#
1="
0Q"
#98
0="
1Q"
#99
1#
b00000000000000000000000000001100 O!
b00000000000001111000011110010011 P!
b00000000000000000000000001000001010001000100010001001001000000000101001000110001000000000010101100000000010010010100110101001101 T!
b0010011 \!
b01111 _!
1e!
0h!
11"
b01111 2"
1="
1B"
1C"
1D"
b00000000000000000000000000001100 E"
b00000000000000000000000000010000 F"
0Q"
#100
b00000000000000000000000001000001010001000100010001001001000000000101001000110001000000000010101100000000010010010100110101001101 ?!
b00000000000000000000000000000000010100100011000100111010000000000011000000110000001100000011000000110000001100000011000000110000 G!
0="
1Q"
#101
0#
1="
0Q"
#102
0="
1Q"
#103
1#
1="
0B"
0Q"
#104
0="
1Q"
#105
0#
1="
0Q"
#106
0="
1Q"
#107
1#
1="
1B"
0C"
0Q"
#108
0="
1Q"
#109
0#
1="
0Q"
#110
0="
1Q"
#111
1#
1="
0B"
0Q"
#112
0="
1Q"
#113
0#
1="
0Q"
#114
0="
1Q"
#115
1#
b01111 J
b00000000000000000000000000001111 L
b1111 N
1S
b01111 V
b0010011 X
b01111 Z
b00000000000000000000000000001100 ^
b10 _
1w
1~
04!
06!
b0011000000110000001100000011000000110000001100000011000001000110 5"
b01000110 9"
1="
1B"
1C"
0D"
0Q"
#116
b00000000000000000000000000000000010100100011000100111010000000000011000000110000001100000011000000110000001100000011000001000110 G!
0="
1Q"
#117
0#
1="
0Q"
#118
0="
1Q"
#119
1#
1="
0B"
0Q"
#120
0="
1Q"
#121
0#
1="
0Q"
#122
0="
1Q"
#123
1#
1="
1B"
0C"
0Q"
#124
0="
1Q"
#125
0#
1="
0Q"
#126
0="
1Q"
#127
1#
1="
0B"
0Q"
#128
0="
1Q"
#129
0#
1="
0Q"
#130
0="
1Q"
#131
1#
b00000000000000000000000000010000 O!
b00000000001100000000011100010011 P!
1R!
b01111 S!
b0011000000110000001100000011000000110000001100000011000000110011 Z!
b01110 ]!
b00000 _!
b00011 `!
b00000000000000000000000000000011 j!
b0011 l!
b00110011 m!
1="
1B"
1C"
1D"
b00000000000000000000000000010000 E"
b00000000000000000000000000010100 F"
0Q"
#132
b00000000000000000000000000000000010010010100110101001101001110100011000000110000001100000011000000110000001100000011000000110011 C!
0="
1Q"
#133
0#
1="
0Q"
#134
0="
1Q"
#135
1#
1="
0B"
0Q"
#136
0="
1Q"
#137
0#
1="
0Q"
#138
0="
1Q"
#139
1#
1="
1B"
0C"
0Q"
#140
0="
1Q"
#141
0#
1="
0Q"
#142
0="
1Q"
#143
1#
1="
0B"
0Q"
#144
0="
1Q"
#145
0#
1="
0Q"
#146
0="
1Q"
#147
1#
b00000 J
b00000000000000000000000000000000 L
b0000 N
b01110 Y
b00000 Z
b00011 [
b00000000000000000000000000000011 ]
b00000000000000000000000000010000 ^
b00 _
b01110 9!
b0011000000110000001100000011000000110000001100000011000000110000 5"
b00110000 9"
1="
1B"
1C"
0D"
0Q"
#148
b00000000000000000000000000000000010100100011000100111010000000000011000000110000001100000011000000110000001100000011000000110000 G!
0="
1Q"
#149
0#
1="
0Q"
#150
0="
1Q"
#151
1#
1="
0B"
0Q"
#152
0="
1Q"
#153
0#
1="
0Q"
#154
0="
1Q"
#155
1#
1="
1B"
0C"
0Q"
#156
0="
1Q"
#157
0#
1="
0Q"
#158
0="
1Q"
#159
1#
1="
0B"
0Q"
#160
0="
1Q"
#161
0#
1="
0Q"
#162
0="
1Q"
#163
1#
b00000000000000000000000000010100 O!
b00000000111001111000000000100011 P!
b00000000000000000000000000000000000000000000000000000000000000000101001101000010000000000011100001100010011010010111010001110011 T!
b0011000000110000001100000011000000110000001100000011000000110000 Z!
b0100011 \!
b00000 ]!
b01111 _!
b01110 `!
0e!
1f!
b00000000000000000000000000000000 j!
b0000 l!
b00110000 m!
b01110 2"
1="
b00000000000000000000000000000011 ?"
1B"
1C"
1D"
b00000000000000000000000000010100 E"
b00000000000000000000000000011000 F"
0Q"
#164
b00000000000000000000000000000000000000000000000000000000000000000101001101000010000000000011100001100010011010010111010001110011 ?!
b00000000000000000000000000000000010010010100110101001101001110100011000000110000001100000011000000110000001100000011000000110000 C!
b00000000000000000000000000000000010100100011001000111010000000000011000000110000001100000011000000110000001100000011000000110000 K!
0="
1Q"
#165
0#
1="
0Q"
#166
0="
1Q"
#167
1#
1="
0B"
0Q"
#168
0="
1Q"
#169
0#
1="
0Q"
#170
0="
1Q"
#171
1#
1="
1B"
0C"
0Q"
#172
0="
1Q"
#173
0#
1="
0Q"
#174
0="
1Q"
#175
1#
1="
0B"
0Q"
#176
0="
1Q"
#177
0#
1="
0Q"
#178
0="
1Q"
#179
1#
b01111 J
b01110 K
b00000000000000000000000000001111 L
b00000000000000000000000000001110 M
b1111 N
b1110 P
b00000000000000000000000000000011 T
b01110 V
b0100011 X
b00000 Y
b01111 Z
b01110 [
b00000000000000000000000000000000 ]
b00000000000000000000000000010100 ^
b01 _
b10 `
0w
0~
1)!
1+!
b00000 9!
0>!
b0011000000110000001100000011000000110000001100000011000001000110 5"
b0011000000110000001100000011000000110000001100000011000001000101 7"
b01000110 9"
b01000101 ;"
1="
1B"
1C"
0D"
b00000000000000000000000000000011 H"
0Q"
#180
b00000000000000000000000000000000010100100011000100111010000000000011000000110000001100000011000000110000001100000011000001000110 G!
b00000000000000000000000000000000010100100011001000111010000000000011000000110000001100000011000000110000001100000011000001000101 K!
0="
1Q"
#181
0#
1="
0Q"
#182
0="
1Q"
#183
1#
1="
0B"
0Q"
#184
0="
1Q"
#185
0#
1="
0Q"
#186
0="
1Q"
#187
1#
1="
1B"
0C"
0Q"
#188
0="
1Q"
#189
0#
1="
0Q"
#190
0="
1Q"
#191
1#
1="
0B"
0Q"
#192
0="
1Q"
#193
0#
1="
0Q"
#194
0="
1Q"
#195
1#
b00000000000000000000000000011000 O!
b00000000000000000000011110110111 P!
b00000000000000000000000000000011 Q!
b01110 S!
b00000000000000000000000000000000000000000000000000000000000000000000000001001100010101010100100100000000010010010100110101001101 T!
b0011000000110000001100000011000000110000001100000011000000110011 X!
b0110111 \!
b01111 ]!
b00000 _!
b00000 `!
0f!
1h!
b0011 |!
b00110011 }!
1/"
01"
b00000 2"
b00000000000000000000000000000011 3"
1="
b00000000000000000000000000000000 ?"
1B"
1C"
1D"
b00000000000000000000000000011000 E"
b00000000000000000000000000011100 F"
b00000000000000000000000000000011 G"
0Q"
#196
b00000000000000000000000000000000000000000000000000000000000000000000000001001100010101010100100100000000010010010100110101001101 ?!
b00000000000000000000000000000000000000000000000000000000000000000000000000000000000000000000000000000000000000000000000000000000 G!
b00000000000000000000000000000000010100100100010000111010000000000011000000110000001100000011000000110000001100000011000000110011 K!
0="
1Q"
#197
0#
b00000000000000000000000000000011 5
1="
b00000000000000000000000000000011 A"
b000000000000000000000000000000011 M"
0Q"
#198
0="
1Q"
#199
1#
1="
0B"
0Q"
#200
0="
1Q"
#201
0#
1="
0Q"
#202
0="
1Q"
#203
1#
1="
1B"
0C"
0Q"
#204
0="
1Q"
#205
0#
1="
0Q"
#206
0="
1Q"
#207
1#
1="
0B"
0Q"
#208
0="
1Q"
#209
0#
1="
0Q"
#210
0="
1Q"
#211
1#
b00000000000000000000000000000011 G
1H
b0001 I
b00000 J
b00000 K
b00000000000000000000000000000000 L
b00000000000000000000000000000000 M
b0000 N
b0000 P
0S
b00000000000000000000000000000000 T
b00000 V
b0110111 X
b01111 Y
b00000 Z
b00000 [
b00000000000000000000000000011000 ^
b00 _
b00 `
0)!
0+!
14!
16!
b01111 9!
1>!
b0011000000110000001100000011000000110000001100000011000000110000 5"
b0011000000110000001100000011000000110000001100000011000000110000 7"
b00110000 9"
b00110000 ;"
1="
b00000000000000000000000000000000 A"
1B"
1C"
0D"
b00000000000000000000000000000000 G"
b00000000000000000000000000000000 H"
b000000000000000000000000000000000 M"
0Q"
#212
0="
1Q"
#213
0#
1="
0Q"
#214
0="
1Q"
#215
1#
1="
b00000000000000000000000000000011 >"
0B"
0Q"
#216
0="
1Q"
